project/project.sim/sim_1/behav/xsim/tb_matvec.vcd
$date
   Sat Feb 28 10:46:13 2026
$end

$version
  2025.2
  $dumpfile ("tb_matvec.vcd") 
$end

$timescale
  1ps
$end

$scope module tb_matvec_int8 $end
$var reg 1 ! clk $end
$var reg 1 " rst $end
$var reg 1 # start $end
$var wire 1024 $ out_vec [1023:0] $end
$var wire 1 % done $end
$var reg 1024 & in_vec [1023:0] $end
$var integer 32 ' i [31:0] $end
$var wire 14 ( weight_addr [13:0] $end
$var reg 8 ) weight_data [7:0] $end
$var integer 32 * errors [31:0] $end
$var integer 32 + fd [31:0] $end
$scope module dut $end
$var wire 1 , clk_i $end
$var wire 1 - rst_i $end
$var wire 1 . start_i $end
$var wire 1024 / in_vec_i [1023:0] $end
$var reg 14 0 weight_addr_o [13:0] $end
$var wire 8 1 weight_data_i [7:0] $end
$var reg 1024 2 out_vec_o [1023:0] $end
$var reg 1 3 done_o $end
$var reg 24 4 acc [23:0] $end
$var reg 8 5 col [7:0] $end
$var reg 8 6 row [7:0] $end
$var reg 1 7 running $end
$var reg 1 8 prefetch $end
$scope begin requant $end
$var reg 24 9 final_acc [23:0] $end
$var reg 17 : shifted [16:0] $end
$upscope $end
$upscope $end
$upscope $end
$enddefinitions $end

#0
$dumpvars
0!
1"
0#
bx $
x%
b100000001000000010000000100000001000000010000000100000001000000010000000100000001000000010000000100000001000000010000000100000001000000010000000100000001000000010000000100000001000000010000000100000001000000010000000100000001000000010000000100000001000000010000000100000001000000010000000100000001000000010000000100000001000000010000000100000001000000010000000100000001000000010000000100000001000000010000000100000001000000010000000100000001000000010000000100000001000000010000000100000001000000010000000100000001000000010000000100000001000000010000000100000001000000010000000100000001000000010000000100000001000000010000000100000001000000010000000100000001000000010000000100000001000000010000000100000001000000010000000100000001000000010000000100000001000000010000000100000001000000010000000100000001000000010000000100000001000000010000000100000001000000010000000100000001000000010000000100000001000000010000000100000001000000010000000100000001000000010000000100000001000000010000000100000001000000010000000100000001 &
b10000000 '
bx (
bx )
bx *
b11111111111111111011000111100000 +
0,
1-
0.
b100000001000000010000000100000001000000010000000100000001000000010000000100000001000000010000000100000001000000010000000100000001000000010000000100000001000000010000000100000001000000010000000100000001000000010000000100000001000000010000000100000001000000010000000100000001000000010000000100000001000000010000000100000001000000010000000100000001000000010000000100000001000000010000000100000001000000010000000100000001000000010000000100000001000000010000000100000001000000010000000100000001000000010000000100000001000000010000000100000001000000010000000100000001000000010000000100000001000000010000000100000001000000010000000100000001000000010000000100000001000000010000000100000001000000010000000100000001000000010000000100000001000000010000000100000001000000010000000100000001000000010000000100000001000000010000000100000001000000010000000100000001000000010000000100000001000000010000000100000001000000010000000100000001000000010000000100000001000000010000000100000001000000010000000100000001000000010000000100000001 /
bx 0
bx 1
bx 2
x3
bx 4
bx 5
bx 6
x7
x8
bx 9
bx :
$end

#5000
1!
0%
b0 (
1,
b0 0
03
b0 4
b0 5
b0 6
07
08

#10000
0!
0,

#15000
1!
b11101000 )
1,
b11101000 1

#20000
0!
0,

#25000
1!
1,

#30000
0!
0,

#35000
1!
1,

#40000
0!
0,

#45000
1!
0"
1,
0-

#50000
0!
0,

#55000
1!
1,

#60000
0!
0,

#65000
1!
1#
1,
1.
18

#70000
0!
0,

#75000
1!
0#
b1 (
1,
0.
b1 0
17
08

#80000
0!
0,

#85000
1!
b10 (
b11 )
1,
b10 0
b11 1
b111111111111111111101000 4
b1 5

#90000
0!
0,

#95000
1!
b11 (
b1011 )
1,
b11 0
b1011 1
b111111111111111111101011 4
b10 5

#100000
0!
0,

#105000
1!
b100 (
b11011110 )
1,
b100 0
b11011110 1
b111111111111111111110110 4
b11 5

#110000
0!
0,

#115000
1!
b101 (
b11010 )
1,
b101 0
b11010 1
b111111111111111111010100 4
b100 5

#120000
0!
0,

#125000
1!
b110 (
b100110 )
1,
b110 0
b100110 1
b111111111111111111101110 4
b101 5

#130000
0!
0,

#135000
1!
b111 (
b11111001 )
1,
b111 0
b11111001 1
b10100 4
b110 5

#140000
0!
0,

#145000
1!
b1000 (
b11111100 )
1,
b1000 0
b11111100 1
b1101 4
b111 5

#150000
0!
0,

#155000
1!
b1001 (
b10011 )
1,
b1001 0
b10011 1
b1001 4
b1000 5

#160000
0!
0,

#165000
1!
b1010 (
b10001 )
1,
b1010 0
b10001 1
b11100 4
b1001 5

#170000
0!
0,

#175000
1!
b1011 (
b11100001 )
1,
b1011 0
b11100001 1
b101101 4
b1010 5

#180000
0!
0,

#185000
1!
b1100 (
b110000 )
1,
b1100 0
b110000 1
b1110 4
b1011 5

#190000
0!
0,

#195000
1!
b1101 (
b111 )
1,
b1101 0
b111 1
b111110 4
b1100 5

#200000
0!
0,

#205000
1!
b1110 (
b0 )
1,
b1110 0
b0 1
b1000101 4
b1101 5

#210000
0!
0,

#215000
1!
b1111 (
b11100001 )
1,
b1111 0
b11100001 1
b1110 5

#220000
0!
0,

#225000
1!
b10000 (
b11111 )
1,
b10000 0
b11111 1
b100110 4
b1111 5

#230000
0!
0,

#235000
1!
b10001 (
b11101010 )
1,
b10001 0
b11101010 1
b1000101 4
b10000 5

#240000
0!
0,

#245000
1!
b10010 (
b11000000 )
1,
b10010 0
b11000000 1
b101111 4
b10001 5

#250000
0!
0,

#255000
1!
b10011 (
b11111001 )
1,
b10011 0
b11111001 1
b111111111111111111101111 4
b10010 5

#260000
0!
0,

#265000
1!
b10100 (
b11001011 )
1,
b10100 0
b11001011 1
b111111111111111111101000 4
b10011 5

#270000
0!
0,

#275000
1!
b10101 (
b11110000 )
1,
b10101 0
b11110000 1
b111111111111111110110011 4
b10100 5

#280000
0!
0,

#285000
1!
b10110 (
b1111 )
1,
b10110 0
b1111 1
b111111111111111110100011 4
b10101 5

#290000
0!
0,

#295000
1!
b10111 (
b10010 )
1,
b10111 0
b10010 1
b111111111111111110110010 4
b10110 5

#300000
0!
0,

#305000
1!
b11000 (
b101011 )
1,
b11000 0
b101011 1
b111111111111111111000100 4
b10111 5

#310000
0!
0,

#315000
1!
b11001 (
b1001 )
1,
b11001 0
b1001 1
b111111111111111111101111 4
b11000 5

#320000
0!
0,

#325000
1!
b11010 (
b10010001 )
1,
b11010 0
b10010001 1
b111111111111111111111000 4
b11001 5

#330000
0!
0,

#335000
1!
b11011 (
b11111010 )
1,
b11011 0
b11111010 1
b111111111111111110001001 4
b11010 5

#340000
0!
0,

#345000
1!
b11100 (
b11011 )
1,
b11100 0
b11011 1
b111111111111111110000011 4
b11011 5

#350000
0!
0,

#355000
1!
b11101 (
b111010 )
1,
b11101 0
b111010 1
b111111111111111110011110 4
b11100 5

#360000
0!
0,

#365000
1!
b11110 (
b1001 )
1,
b11110 0
b1001 1
b111111111111111111011000 4
b11101 5

#370000
0!
0,

#375000
1!
b11111 (
b10111101 )
1,
b11111 0
b10111101 1
b111111111111111111100001 4
b11110 5

#380000
0!
0,

#385000
1!
b100000 (
b110011 )
1,
b100000 0
b110011 1
b111111111111111110011110 4
b11111 5

#390000
0!
0,

#395000
1!
b100001 (
b10101010 )
1,
b100001 0
b10101010 1
b111111111111111111010001 4
b100000 5

#400000
0!
0,

#405000
1!
b100010 (
b11111101 )
1,
b100010 0
b11111101 1
b111111111111111101111011 4
b100001 5

#410000
0!
0,

#415000
1!
b100011 (
b11110010 )
1,
b100011 0
b11110010 1
b111111111111111101111000 4
b100010 5

#420000
0!
0,

#425000
1!
b100100 (
b11101100 )
1,
b100100 0
b11101100 1
b111111111111111101101010 4
b100011 5

#430000
0!
0,

#435000
1!
b100101 (
b1111 )
1,
b100101 0
b1111 1
b111111111111111101010110 4
b100100 5

#440000
0!
0,

#445000
1!
b100110 (
b10 )
1,
b100110 0
b10 1
b111111111111111101100101 4
b100101 5

#450000
0!
0,

#455000
1!
b100111 (
b11111110 )
1,
b100111 0
b11111110 1
b111111111111111101100111 4
b100110 5

#460000
0!
0,

#465000
1!
b101000 (
b1100 )
1,
b101000 0
b1100 1
b111111111111111101100101 4
b100111 5

#470000
0!
0,

#475000
1!
b101001 (
b111001 )
1,
b101001 0
b111001 1
b111111111111111101110001 4
b101000 5

#480000
0!
0,

#485000
1!
b101010 (
b10110 )
1,
b101010 0
b10110 1
b111111111111111110101010 4
b101001 5

#490000
0!
0,

#495000
1!
b101011 (
b110010 )
1,
b101011 0
b110010 1
b111111111111111111000000 4
b101010 5

#500000
0!
0,

#505000
1!
b101100 (
b1 )
1,
b101100 0
b1 1
b111111111111111111110010 4
b101011 5

#510000
0!
0,

#515000
1!
b101101 (
b100001 )
1,
b101101 0
b100001 1
b111111111111111111110011 4
b101100 5

#520000
0!
0,

#525000
1!
b101110 (
b1000110 )
1,
b101110 0
b1000110 1
b10100 4
b101101 5

#530000
0!
0,

#535000
1!
b101111 (
b1001101 )
1,
b101111 0
b1001101 1
b1011010 4
b101110 5

#540000
0!
0,

#545000
1!
b110000 (
b10111 )
1,
b110000 0
b10111 1
b10100111 4
b101111 5

#550000
0!
0,

#555000
1!
b110001 (
b1001 )
1,
b110001 0
b1001 1
b10111110 4
b110000 5

#560000
0!
0,

#565000
1!
b110010 (
b11011 )
1,
b110010 0
b11011 1
b11000111 4
b110001 5

#570000
0!
0,

#575000
1!
b110011 (
b11 )
1,
b110011 0
b11 1
b11100010 4
b110010 5

#580000
0!
0,

#585000
1!
b110100 (
b11101011 )
1,
b110100 0
b11101011 1
b11100101 4
b110011 5

#590000
0!
0,

#595000
1!
b110101 (
b10001 )
1,
b110101 0
b10001 1
b11010000 4
b110100 5

#600000
0!
0,

#605000
1!
b110110 (
b1100 )
1,
b110110 0
b1100 1
b11100001 4
b110101 5

#610000
0!
0,

#615000
1!
b110111 (
b11011100 )
1,
b110111 0
b11011100 1
b11101101 4
b110110 5

#620000
0!
0,

#625000
1!
b111000 (
b11010110 )
1,
b111000 0
b11010110 1
b11001001 4
b110111 5

#630000
0!
0,

#635000
1!
b111001 (
b1110 )
1,
b111001 0
b1110 1
b10011111 4
b111000 5

#640000
0!
0,

#645000
1!
b111010 (
b11 )
1,
b111010 0
b11 1
b10101101 4
b111001 5

#650000
0!
0,

#655000
1!
b111011 (
b11011000 )
1,
b111011 0
b11011000 1
b10110000 4
b111010 5

#660000
0!
0,

#665000
1!
b111100 (
b1111 )
1,
b111100 0
b1111 1
b10001000 4
b111011 5

#670000
0!
0,

#675000
1!
b111101 (
b1010 )
1,
b111101 0
b1010 1
b10010111 4
b111100 5

#680000
0!
0,

#685000
1!
b111110 (
b1100 )
1,
b111110 0
b1100 1
b10100001 4
b111101 5

#690000
0!
0,

#695000
1!
b111111 (
b1 )
1,
b111111 0
b1 1
b10101101 4
b111110 5

#700000
0!
0,

#705000
1!
b1000000 (
b1011 )
1,
b1000000 0
b1011 1
b10101110 4
b111111 5

#710000
0!
0,

#715000
1!
b1000001 (
b11100001 )
1,
b1000001 0
b11100001 1
b10111001 4
b1000000 5

#720000
0!
0,

#725000
1!
b1000010 (
b10100 )
1,
b1000010 0
b10100 1
b10011010 4
b1000001 5

#730000
0!
0,

#735000
1!
b1000011 (
b10001110 )
1,
b1000011 0
b10001110 1
b10101110 4
b1000010 5

#740000
0!
0,

#745000
1!
b1000100 (
b11110001 )
1,
b1000100 0
b11110001 1
b111100 4
b1000011 5

#750000
0!
0,

#755000
1!
b1000101 (
b11101001 )
1,
b1000101 0
b11101001 1
b101101 4
b1000100 5

#760000
0!
0,

#765000
1!
b1000110 (
b11101110 )
1,
b1000110 0
b11101110 1
b10110 4
b1000101 5

#770000
0!
0,

#775000
1!
b1000111 (
b11 )
1,
b1000111 0
b11 1
b100 4
b1000110 5

#780000
0!
0,

#785000
1!
b1001000 (
b11010010 )
1,
b1001000 0
b11010010 1
b111 4
b1000111 5

#790000
0!
0,

#795000
1!
b1001001 (
b1011 )
1,
b1001001 0
b1011 1
b111111111111111111011001 4
b1001000 5

#800000
0!
0,

#805000
1!
b1001010 (
b11010000 )
1,
b1001010 0
b11010000 1
b111111111111111111100100 4
b1001001 5

#810000
0!
0,

#815000
1!
b1001011 (
b11110011 )
1,
b1001011 0
b11110011 1
b111111111111111110110100 4
b1001010 5

#820000
0!
0,

#825000
1!
b1001100 (
b110 )
1,
b1001100 0
b110 1
b111111111111111110100111 4
b1001011 5

#830000
0!
0,

#835000
1!
b1001101 (
1,
b1001101 0
b111111111111111110101101 4
b1001100 5

#840000
0!
0,

#845000
1!
b1001110 (
1,
b1001110 0
b111111111111111110110011 4
b1001101 5

#850000
0!
0,

#855000
1!
b1001111 (
b1000101 )
1,
b1001111 0
b1000101 1
b111111111111111110111001 4
b1001110 5

#860000
0!
0,

#865000
1!
b1010000 (
b11100011 )
1,
b1010000 0
b11100011 1
b111111111111111111111110 4
b1001111 5

#870000
0!
0,

#875000
1!
b1010001 (
b11110110 )
1,
b1010001 0
b11110110 1
b111111111111111111100001 4
b1010000 5

#880000
0!
0,

#885000
1!
b1010010 (
b110100 )
1,
b1010010 0
b110100 1
b111111111111111111010111 4
b1010001 5

#890000
0!
0,

#895000
1!
b1010011 (
b111010 )
1,
b1010011 0
b111010 1
b1011 4
b1010010 5

#900000
0!
0,

#905000
1!
b1010100 (
b10001 )
1,
b1010100 0
b10001 1
b1000101 4
b1010011 5

#910000
0!
0,

#915000
1!
b1010101 (
b1101 )
1,
b1010101 0
b1101 1
b1010110 4
b1010100 5

#920000
0!
0,

#925000
1!
b1010110 (
b1001001 )
1,
b1010110 0
b1001001 1
b1100011 4
b1010101 5

#930000
0!
0,

#935000
1!
b1010111 (
b100100 )
1,
b1010111 0
b100100 1
b10101100 4
b1010110 5

#940000
0!
0,

#945000
1!
b1011000 (
b11111110 )
1,
b1011000 0
b11111110 1
b11010000 4
b1010111 5

#950000
0!
0,

#955000
1!
b1011001 (
b10110 )
1,
b1011001 0
b10110 1
b11001110 4
b1011000 5

#960000
0!
0,

#965000
1!
b1011010 (
b11001101 )
1,
b1011010 0
b11001101 1
b11100100 4
b1011001 5

#970000
0!
0,

#975000
1!
b1011011 (
b11110010 )
1,
b1011011 0
b11110010 1
b10110001 4
b1011010 5

#980000
0!
0,

#985000
1!
b1011100 (
b11010100 )
1,
b1011100 0
b11010100 1
b10100011 4
b1011011 5

#990000
0!
0,

#995000
1!
b1011101 (
b101 )
1,
b1011101 0
b101 1
b1110111 4
b1011100 5

#1000000
0!
0,

#1005000
1!
b1011110 (
b111001 )
1,
b1011110 0
b111001 1
b1111100 4
b1011101 5

#1010000
0!
0,

#1015000
1!
b1011111 (
b11011101 )
1,
b1011111 0
b11011101 1
b10110101 4
b1011110 5

#1020000
0!
0,

#1025000
1!
b1100000 (
b11100110 )
1,
b1100000 0
b11100110 1
b10010010 4
b1011111 5

#1030000
0!
0,

#1035000
1!
b1100001 (
b110000 )
1,
b1100001 0
b110000 1
b1111000 4
b1100000 5

#1040000
0!
0,

#1045000
1!
b1100010 (
b11111 )
1,
b1100010 0
b11111 1
b10101000 4
b1100001 5

#1050000
0!
0,

#1055000
1!
b1100011 (
b11010010 )
1,
b1100011 0
b11010010 1
b11000111 4
b1100010 5

#1060000
0!
0,

#1065000
1!
b1100100 (
b101 )
1,
b1100100 0
b101 1
b10011001 4
b1100011 5

#1070000
0!
0,

#1075000
1!
b1100101 (
b101111 )
1,
b1100101 0
b101111 1
b10011110 4
b1100100 5

#1080000
0!
0,

#1085000
1!
b1100110 (
b101101 )
1,
b1100110 0
b101101 1
b11001101 4
b1100101 5

#1090000
0!
0,

#1095000
1!
b1100111 (
b11100010 )
1,
b1100111 0
b11100010 1
b11111010 4
b1100110 5

#1100000
0!
0,

#1105000
1!
b1101000 (
b110 )
1,
b1101000 0
b110 1
b11011100 4
b1100111 5

#1110000
0!
0,

#1115000
1!
b1101001 (
b11110011 )
1,
b1101001 0
b11110011 1
b11100010 4
b1101000 5

#1120000
0!
0,

#1125000
1!
b1101010 (
b11111101 )
1,
b1101010 0
b11111101 1
b11010101 4
b1101001 5

#1130000
0!
0,

#1135000
1!
b1101011 (
b1011 )
1,
b1101011 0
b1011 1
b11010010 4
b1101010 5

#1140000
0!
0,

#1145000
1!
b1101100 (
b11001101 )
1,
b1101100 0
b11001101 1
b11011101 4
b1101011 5

#1150000
0!
0,

#1155000
1!
b1101101 (
b11100110 )
1,
b1101101 0
b11100110 1
b10101010 4
b1101100 5

#1160000
0!
0,

#1165000
1!
b1101110 (
b11111010 )
1,
b1101110 0
b11111010 1
b10010000 4
b1101101 5

#1170000
0!
0,

#1175000
1!
b1101111 (
b11100010 )
1,
b1101111 0
b11100010 1
b10001010 4
b1101110 5

#1180000
0!
0,

#1185000
1!
b1110000 (
b11010001 )
1,
b1110000 0
b11010001 1
b1101100 4
b1101111 5

#1190000
0!
0,

#1195000
1!
b1110001 (
b1010 )
1,
b1110001 0
b1010 1
b111101 4
b1110000 5

#1200000
0!
0,

#1205000
1!
b1110010 (
b10011010 )
1,
b1110010 0
b10011010 1
b1000111 4
b1110001 5

#1210000
0!
0,

#1215000
1!
b1110011 (
b100010 )
1,
b1110011 0
b100010 1
b111111111111111111100001 4
b1110010 5

#1220000
0!
0,

#1225000
1!
b1110100 (
b1000 )
1,
b1110100 0
b1000 1
b11 4
b1110011 5

#1230000
0!
0,

#1235000
1!
b1110101 (
b10101111 )
1,
b1110101 0
b10101111 1
b1011 4
b1110100 5

#1240000
0!
0,

#1245000
1!
b1110110 (
b110110 )
1,
b1110110 0
b110110 1
b111111111111111110111010 4
b1110101 5

#1250000
0!
0,

#1255000
1!
b1110111 (
b11110111 )
1,
b1110111 0
b11110111 1
b111111111111111111110000 4
b1110110 5

#1260000
0!
0,

#1265000
1!
b1111000 (
b11111001 )
1,
b1111000 0
b11111001 1
b111111111111111111100111 4
b1110111 5

#1270000
0!
0,

#1275000
1!
b1111001 (
b10001 )
1,
b1111001 0
b10001 1
b111111111111111111100000 4
b1111000 5

#1280000
0!
0,

#1285000
1!
b1111010 (
b10101010 )
1,
b1111010 0
b10101010 1
b111111111111111111110001 4
b1111001 5

#1290000
0!
0,

#1295000
1!
b1111011 (
b11001110 )
1,
b1111011 0
b11001110 1
b111111111111111110011011 4
b1111010 5

#1300000
0!
0,

#1305000
1!
b1111100 (
b11001 )
1,
b1111100 0
b11001 1
b111111111111111101101001 4
b1111011 5

#1310000
0!
0,

#1315000
1!
b1111101 (
b11110001 )
1,
b1111101 0
b11110001 1
b111111111111111110000010 4
b1111100 5

#1320000
0!
0,

#1325000
1!
b1111110 (
b1111 )
1,
b1111110 0
b1111 1
b111111111111111101110011 4
b1111101 5

#1330000
0!
0,

#1335000
1!
b1111111 (
b11111010 )
1,
b1111111 0
b11111010 1
b111111111111111110000010 4
b1111110 5

#1340000
0!
0,

#1345000
1!
b10000000 (
b1010000 )
1,
b10000000 0
b1010000 1
b111111111111111101111100 4
b1111111 5

#1350000
0!
0,

#1355000
1!
bx11111111 $
b10000001 (
b11010 )
1,
b10000001 0
b11010 1
bx11111111 2
b0 4
b0 5
b1 6
b111111111111111111001100 9
b11111111111111111 :

#1360000
0!
0,

#1365000
1!
b10000010 (
b11111011 )
1,
b10000010 0
b11111011 1
b11010 4
b1 5

#1370000
0!
0,

#1375000
1!
b10000011 (
b101 )
1,
b10000011 0
b101 1
b10101 4
b10 5

#1380000
0!
0,

#1385000
1!
b10000100 (
b11111011 )
1,
b10000100 0
b11111011 1
b11010 4
b11 5

#1390000
0!
0,

#1395000
1!
b10000101 (
b11011011 )
1,
b10000101 0
b11011011 1
b10101 4
b100 5

#1400000
0!
0,

#1405000
1!
b10000110 (
b10100 )
1,
b10000110 0
b10100 1
b111111111111111111110000 4
b101 5

#1410000
0!
0,

#1415000
1!
b10000111 (
b1111 )
1,
b10000111 0
b1111 1
b100 4
b110 5

#1420000
0!
0,

#1425000
1!
b10001000 (
b100000 )
1,
b10001000 0
b100000 1
b10011 4
b111 5

#1430000
0!
0,

#1435000
1!
b10001001 (
b11111111 )
1,
b10001001 0
b11111111 1
b110011 4
b1000 5

#1440000
0!
0,

#1445000
1!
b10001010 (
b11101100 )
1,
b10001010 0
b11101100 1
b110010 4
b1001 5

#1450000
0!
0,

#1455000
1!
b10001011 (
b1010 )
1,
b10001011 0
b1010 1
b11110 4
b1010 5

#1460000
0!
0,

#1465000
1!
b10001100 (
b100010 )
1,
b10001100 0
b100010 1
b101000 4
b1011 5

#1470000
0!
0,

#1475000
1!
b10001101 (
b11101110 )
1,
b10001101 0
b11101110 1
b1001010 4
b1100 5

#1480000
0!
0,

#1485000
1!
b10001110 (
b100110 )
1,
b10001110 0
b100110 1
b111000 4
b1101 5

#1490000
0!
0,

#1495000
1!
b10001111 (
b10001 )
1,
b10001111 0
b10001 1
b1011110 4
b1110 5

#1500000
0!
0,

#1505000
1!
b10010000 (
b11001000 )
1,
b10010000 0
b11001000 1
b1101111 4
b1111 5

#1510000
0!
0,

#1515000
1!
b10010001 (
b11111011 )
1,
b10010001 0
b11111011 1
b110111 4
b10000 5

#1520000
0!
0,

#1525000
1!
b10010010 (
b10 )
1,
b10010010 0
b10 1
b110010 4
b10001 5

#1530000
0!
0,

#1535000
1!
b10010011 (
b11111110 )
1,
b10010011 0
b11111110 1
b110100 4
b10010 5

#1540000
0!
0,

#1545000
1!
b10010100 (
b11111011 )
1,
b10010100 0
b11111011 1
b110010 4
b10011 5

#1550000
0!
0,

#1555000
1!
b10010101 (
b11011 )
1,
b10010101 0
b11011 1
b101101 4
b10100 5

#1560000
0!
0,

#1565000
1!
b10010110 (
b10101 )
1,
b10010110 0
b10101 1
b1001000 4
b10101 5

#1570000
0!
0,

#1575000
1!
b10010111 (
b11011110 )
1,
b10010111 0
b11011110 1
b1011101 4
b10110 5

#1580000
0!
0,

#1585000
1!
b10011000 (
b11100 )
1,
b10011000 0
b11100 1
b111011 4
b10111 5

#1590000
0!
0,

#1595000
1!
b10011001 (
b11000 )
1,
b10011001 0
b11000 1
b1010111 4
b11000 5

#1600000
0!
0,

#1605000
1!
b10011010 (
b11100101 )
1,
b10011010 0
b11100101 1
b1101111 4
b11001 5

#1610000
0!
0,

#1615000
1!
b10011011 (
b11101 )
1,
b10011011 0
b11101 1
b1010100 4
b11010 5

#1620000
0!
0,

#1625000
1!
b10011100 (
b11100 )
1,
b10011100 0
b11100 1
b1110001 4
b11011 5

#1630000
0!
0,

#1635000
1!
b10011101 (
b11100101 )
1,
b10011101 0
b11100101 1
b10001101 4
b11100 5

#1640000
0!
0,

#1645000
1!
b10011110 (
b11110100 )
1,
b10011110 0
b11110100 1
b1110010 4
b11101 5

#1650000
0!
0,

#1655000
1!
b10011111 (
b1 )
1,
b10011111 0
b1 1
b1100110 4
b11110 5

#1660000
0!
0,

#1665000
1!
b10100000 (
b11111010 )
1,
b10100000 0
b11111010 1
b1100111 4
b11111 5

#1670000
0!
0,

#1675000
1!
b10100001 (
b11 )
1,
b10100001 0
b11 1
b1100001 4
b100000 5

#1680000
0!
0,

#1685000
1!
b10100010 (
b11110111 )
1,
b10100010 0
b11110111 1
b1100100 4
b100001 5

#1690000
0!
0,

#1695000
1!
b10100011 (
b1111 )
1,
b10100011 0
b1111 1
b1011011 4
b100010 5

#1700000
0!
0,

#1705000
1!
b10100100 (
b11111111 )
1,
b10100100 0
b11111111 1
b1101010 4
b100011 5

#1710000
0!
0,

#1715000
1!
b10100101 (
b1101 )
1,
b10100101 0
b1101 1
b1101001 4
b100100 5

#1720000
0!
0,

#1725000
1!
b10100110 (
b1010 )
1,
b10100110 0
b1010 1
b1110110 4
b100101 5

#1730000
0!
0,

#1735000
1!
b10100111 (
b1 )
1,
b10100111 0
b1 1
b10000000 4
b100110 5

#1740000
0!
0,

#1745000
1!
b10101000 (
b11100101 )
1,
b10101000 0
b11100101 1
b10000001 4
b100111 5

#1750000
0!
0,

#1755000
1!
b10101001 (
b11110011 )
1,
b10101001 0
b11110011 1
b1100110 4
b101000 5

#1760000
0!
0,

#1765000
1!
b10101010 (
b1111 )
1,
b10101010 0
b1111 1
b1011001 4
b101001 5

#1770000
0!
0,

#1775000
1!
b10101011 (
b11101110 )
1,
b10101011 0
b11101110 1
b1101000 4
b101010 5

#1780000
0!
0,

#1785000
1!
b10101100 (
b11111110 )
1,
b10101100 0
b11111110 1
b1010110 4
b101011 5

#1790000
0!
0,

#1795000
1!
b10101101 (
b11111100 )
1,
b10101101 0
b11111100 1
b1010100 4
b101100 5

#1800000
0!
0,

#1805000
1!
b10101110 (
b1010 )
1,
b10101110 0
b1010 1
b1010000 4
b101101 5

#1810000
0!
0,

#1815000
1!
b10101111 (
b10101 )
1,
b10101111 0
b10101 1
b1011010 4
b101110 5

#1820000
0!
0,

#1825000
1!
b10110000 (
b11110000 )
1,
b10110000 0
b11110000 1
b1101111 4
b101111 5

#1830000
0!
0,

#1835000
1!
b10110001 (
b11100 )
1,
b10110001 0
b11100 1
b1011111 4
b110000 5

#1840000
0!
0,

#1845000
1!
b10110010 (
b10 )
1,
b10110010 0
b10 1
b1111011 4
b110001 5

#1850000
0!
0,

#1855000
1!
b10110011 (
b110 )
1,
b10110011 0
b110 1
b1111101 4
b110010 5

#1860000
0!
0,

#1865000
1!
b10110100 (
b10111 )
1,
b10110100 0
b10111 1
b10000011 4
b110011 5

#1870000
0!
0,

#1875000
1!
b10110101 (
b10101 )
1,
b10110101 0
b10101 1
b10011010 4
b110100 5

#1880000
0!
0,

#1885000
1!
b10110110 (
b11111011 )
1,
b10110110 0
b11111011 1
b10101111 4
b110101 5

#1890000
0!
0,

#1895000
1!
b10110111 (
b11110010 )
1,
b10110111 0
b11110010 1
b10101010 4
b110110 5

#1900000
0!
0,

#1905000
1!
b10111000 (
b11101100 )
1,
b10111000 0
b11101100 1
b10011100 4
b110111 5

#1910000
0!
0,

#1915000
1!
b10111001 (
b100 )
1,
b10111001 0
b100 1
b10001000 4
b111000 5

#1920000
0!
0,

#1925000
1!
b10111010 (
b11111100 )
1,
b10111010 0
b11111100 1
b10001100 4
b111001 5

#1930000
0!
0,

#1935000
1!
b10111011 (
b1000 )
1,
b10111011 0
b1000 1
b10001000 4
b111010 5

#1940000
0!
0,

#1945000
1!
b10111100 (
b11110111 )
1,
b10111100 0
b11110111 1
b10010000 4
b111011 5

#1950000
0!
0,

#1955000
1!
b10111101 (
b1 )
1,
b10111101 0
b1 1
b10000111 4
b111100 5

#1960000
0!
0,

#1965000
1!
b10111110 (
b10110 )
1,
b10111110 0
b10110 1
b10001000 4
b111101 5

#1970000
0!
0,

#1975000
1!
b10111111 (
b101 )
1,
b10111111 0
b101 1
b10011110 4
b111110 5

#1980000
0!
0,

#1985000
1!
b11000000 (
b10010 )
1,
b11000000 0
b10010 1
b10100011 4
b111111 5

#1990000
0!
0,

#1995000
1!
b11000001 (
b11010 )
1,
b11000001 0
b11010 1
b10110101 4
b1000000 5

#2000000
0!
0,

#2005000
1!
b11000010 (
b1010 )
1,
b11000010 0
b1010 1
b11001111 4
b1000001 5

#2010000
0!
0,

#2015000
1!
b11000011 (
b11101100 )
1,
b11000011 0
b11101100 1
b11011001 4
b1000010 5

#2020000
0!
0,

#2025000
1!
b11000100 (
b10100 )
1,
b11000100 0
b10100 1
b11000101 4
b1000011 5

#2030000
0!
0,

#2035000
1!
b11000101 (
b11100100 )
1,
b11000101 0
b11100100 1
b11011001 4
b1000100 5

#2040000
0!
0,

#2045000
1!
b11000110 (
b10101 )
1,
b11000110 0
b10101 1
b10111101 4
b1000101 5

#2050000
0!
0,

#2055000
1!
b11000111 (
b101010 )
1,
b11000111 0
b101010 1
b11010010 4
b1000110 5

#2060000
0!
0,

#2065000
1!
b11001000 (
b11111100 )
1,
b11001000 0
b11111100 1
b11111100 4
b1000111 5

#2070000
0!
0,

#2075000
1!
b11001001 (
b1111 )
1,
b11001001 0
b1111 1
b11111000 4
b1001000 5

#2080000
0!
0,

#2085000
1!
b11001010 (
b11111010 )
1,
b11001010 0
b11111010 1
b100000111 4
b1001001 5

#2090000
0!
0,

#2095000
1!
b11001011 (
b110110 )
1,
b11001011 0
b110110 1
b100000001 4
b1001010 5

#2100000
0!
0,

#2105000
1!
b11001100 (
b1011 )
1,
b11001100 0
b1011 1
b100110111 4
b1001011 5

#2110000
0!
0,

#2115000
1!
b11001101 (
b111 )
1,
b11001101 0
b111 1
b101000010 4
b1001100 5

#2120000
0!
0,

#2125000
1!
b11001110 (
b11110011 )
1,
b11001110 0
b11110011 1
b101001001 4
b1001101 5

#2130000
0!
0,

#2135000
1!
b11001111 (
b11110010 )
1,
b11001111 0
b11110010 1
b100111100 4
b1001110 5

#2140000
0!
0,

#2145000
1!
b11010000 (
b11010110 )
1,
b11010000 0
b11010110 1
b100101110 4
b1001111 5

#2150000
0!
0,

#2155000
1!
b11010001 (
b111 )
1,
b11010001 0
b111 1
b100000100 4
b1010000 5

#2160000
0!
0,

#2165000
1!
b11010010 (
b11110010 )
1,
b11010010 0
b11110010 1
b100001011 4
b1010001 5

#2170000
0!
0,

#2175000
1!
b11010011 (
b1111 )
1,
b11010011 0
b1111 1
b11111101 4
b1010010 5

#2180000
0!
0,

#2185000
1!
b11010100 (
b1110 )
1,
b11010100 0
b1110 1
b100001100 4
b1010011 5

#2190000
0!
0,

#2195000
1!
b11010101 (
b11100110 )
1,
b11010101 0
b11100110 1
b100011010 4
b1010100 5

#2200000
0!
0,

#2205000
1!
b11010110 (
b11111 )
1,
b11010110 0
b11111 1
b100000000 4
b1010101 5

#2210000
0!
0,

#2215000
1!
b11010111 (
b10011 )
1,
b11010111 0
b10011 1
b100011111 4
b1010110 5

#2220000
0!
0,

#2225000
1!
b11011000 (
b11100011 )
1,
b11011000 0
b11100011 1
b100110010 4
b1010111 5

#2230000
0!
0,

