project_1.sim/sim_1/behav/xsim/tb_matvec.vcd
$date
   Thu Feb 26 16:41:32 2026
$end

$version
  2025.2
  $dumpfile ("tb_matvec.vcd") 
$end

$timescale
  1ps
$end

$scope module tb_matvec_int8 $end
$var reg 1 ! clk $end
$var reg 1 " rst $end
$var reg 1 # start $end
$var wire 1024 $ out_vec [1023:0] $end
$var wire 1 % done $end
$var reg 1024 & in_vec [1023:0] $end
$var integer 32 ' i [31:0] $end
$var wire 14 ( weight_addr [13:0] $end
$var wire 8 ) weight_data [7:0] $end
$var integer 32 * errors [31:0] $end
$var integer 32 + fd [31:0] $end
$scope module dut $end
$var wire 1 , clk $end
$var wire 1 - rst $end
$var wire 1 . start $end
$var wire 1024 / in_vec [1023:0] $end
$var reg 14 0 weight_addr [13:0] $end
$var wire 8 ) weight_data [7:0] $end
$var reg 1024 1 out_vec [1023:0] $end
$var reg 1 2 done $end
$var reg 24 3 acc [23:0] $end
$var reg 8 4 col [7:0] $end
$var reg 8 5 row [7:0] $end
$var reg 1 6 running $end
$scope begin requant $end
$var reg 24 7 final_acc [23:0] $end
$var reg 17 8 shifted [16:0] $end
$upscope $end
$upscope $end
$upscope $end
$enddefinitions $end

#0
$dumpvars
0!
1"
0#
bx $
x%
b100000001000000010000000100000001000000010000000100000001000000010000000100000001000000010000000100000001000000010000000100000001000000010000000100000001000000010000000100000001000000010000000100000001000000010000000100000001000000010000000100000001000000010000000100000001000000010000000100000001000000010000000100000001000000010000000100000001000000010000000100000001000000010000000100000001000000010000000100000001000000010000000100000001000000010000000100000001000000010000000100000001000000010000000100000001000000010000000100000001000000010000000100000001000000010000000100000001000000010000000100000001000000010000000100000001000000010000000100000001000000010000000100000001000000010000000100000001000000010000000100000001000000010000000100000001000000010000000100000001000000010000000100000001000000010000000100000001000000010000000100000001000000010000000100000001000000010000000100000001000000010000000100000001000000010000000100000001000000010000000100000001000000010000000100000001000000010000000100000001 &
b10000000 '
bx (
bx )
bx *
b11111111111111111011000111100000 +
0,
1-
0.
b100000001000000010000000100000001000000010000000100000001000000010000000100000001000000010000000100000001000000010000000100000001000000010000000100000001000000010000000100000001000000010000000100000001000000010000000100000001000000010000000100000001000000010000000100000001000000010000000100000001000000010000000100000001000000010000000100000001000000010000000100000001000000010000000100000001000000010000000100000001000000010000000100000001000000010000000100000001000000010000000100000001000000010000000100000001000000010000000100000001000000010000000100000001000000010000000100000001000000010000000100000001000000010000000100000001000000010000000100000001000000010000000100000001000000010000000100000001000000010000000100000001000000010000000100000001000000010000000100000001000000010000000100000001000000010000000100000001000000010000000100000001000000010000000100000001000000010000000100000001000000010000000100000001000000010000000100000001000000010000000100000001000000010000000100000001000000010000000100000001 /
bx 0
bx 1
x2
bx 3
bx 4
bx 5
x6
bx 7
bx 8
$end

#5000
1!
0%
b0 (
b11101000 )
1,
b0 0
02
b0 3
b0 4
b0 5
06

#10000
0!
0,

#15000
1!
1,

#20000
0!
0,

#25000
1!
1,

#30000
0!
0,

#35000
1!
1,

#40000
0!
0,

#45000
1!
0"
1,
0-

#50000
0!
0,

#55000
1!
1,

#60000
0!
0,

#65000
1!
1#
1,
1.
16

#70000
0!
0,

#75000
1!
0#
b1 (
b11 )
1,
0.
b1 0
b111111111111111111101000 3
b1 4

#80000
0!
0,

#85000
1!
b10 (
b1011 )
1,
b10 0
b111111111111111111101011 3
b10 4

#90000
0!
0,

#95000
1!
b11 (
b11011110 )
1,
b11 0
b111111111111111111110110 3
b11 4

#100000
0!
0,

#105000
1!
b100 (
b11010 )
1,
b100 0
b111111111111111111010100 3
b100 4

#110000
0!
0,

#115000
1!
b101 (
b100110 )
1,
b101 0
b111111111111111111101110 3
b101 4

#120000
0!
0,

#125000
1!
b110 (
b11111001 )
1,
b110 0
b10100 3
b110 4

#130000
0!
0,

#135000
1!
b111 (
b11111100 )
1,
b111 0
b1101 3
b111 4

#140000
0!
0,

#145000
1!
b1000 (
b10011 )
1,
b1000 0
b1001 3
b1000 4

#150000
0!
0,

#155000
1!
b1001 (
b10001 )
1,
b1001 0
b11100 3
b1001 4

#160000
0!
0,

#165000
1!
b1010 (
b11100001 )
1,
b1010 0
b101101 3
b1010 4

#170000
0!
0,

#175000
1!
b1011 (
b110000 )
1,
b1011 0
b1110 3
b1011 4

#180000
0!
0,

#185000
1!
b1100 (
b111 )
1,
b1100 0
b111110 3
b1100 4

#190000
0!
0,

#195000
1!
b1101 (
b0 )
1,
b1101 0
b1000101 3
b1101 4

#200000
0!
0,

#205000
1!
b1110 (
b11100001 )
1,
b1110 0
b1110 4

#210000
0!
0,

#215000
1!
b1111 (
b11111 )
1,
b1111 0
b100110 3
b1111 4

#220000
0!
0,

#225000
1!
b10000 (
b11101010 )
1,
b10000 0
b1000101 3
b10000 4

#230000
0!
0,

#235000
1!
b10001 (
b11000000 )
1,
b10001 0
b101111 3
b10001 4

#240000
0!
0,

#245000
1!
b10010 (
b11111001 )
1,
b10010 0
b111111111111111111101111 3
b10010 4

#250000
0!
0,

#255000
1!
b10011 (
b11001011 )
1,
b10011 0
b111111111111111111101000 3
b10011 4

#260000
0!
0,

#265000
1!
b10100 (
b11110000 )
1,
b10100 0
b111111111111111110110011 3
b10100 4

#270000
0!
0,

#275000
1!
b10101 (
b1111 )
1,
b10101 0
b111111111111111110100011 3
b10101 4

#280000
0!
0,

#285000
1!
b10110 (
b10010 )
1,
b10110 0
b111111111111111110110010 3
b10110 4

#290000
0!
0,

#295000
1!
b10111 (
b101011 )
1,
b10111 0
b111111111111111111000100 3
b10111 4

#300000
0!
0,

#305000
1!
b11000 (
b1001 )
1,
b11000 0
b111111111111111111101111 3
b11000 4

#310000
0!
0,

#315000
1!
b11001 (
b10010001 )
1,
b11001 0
b111111111111111111111000 3
b11001 4

#320000
0!
0,

#325000
1!
b11010 (
b11111010 )
1,
b11010 0
b111111111111111110001001 3
b11010 4

#330000
0!
0,

#335000
1!
b11011 (
b11011 )
1,
b11011 0
b111111111111111110000011 3
b11011 4

#340000
0!
0,

#345000
1!
b11100 (
b111010 )
1,
b11100 0
b111111111111111110011110 3
b11100 4

#350000
0!
0,

#355000
1!
b11101 (
b1001 )
1,
b11101 0
b111111111111111111011000 3
b11101 4

#360000
0!
0,

#365000
1!
b11110 (
b10111101 )
1,
b11110 0
b111111111111111111100001 3
b11110 4

#370000
0!
0,

#375000
1!
b11111 (
b110011 )
1,
b11111 0
b111111111111111110011110 3
b11111 4

#380000
0!
0,

#385000
1!
b100000 (
b10101010 )
1,
b100000 0
b111111111111111111010001 3
b100000 4

#390000
0!
0,

#395000
1!
b100001 (
b11111101 )
1,
b100001 0
b111111111111111101111011 3
b100001 4

#400000
0!
0,

#405000
1!
b100010 (
b11110010 )
1,
b100010 0
b111111111111111101111000 3
b100010 4

#410000
0!
0,

#415000
1!
b100011 (
b11101100 )
1,
b100011 0
b111111111111111101101010 3
b100011 4

#420000
0!
0,

#425000
1!
b100100 (
b1111 )
1,
b100100 0
b111111111111111101010110 3
b100100 4

#430000
0!
0,

#435000
1!
b100101 (
b10 )
1,
b100101 0
b111111111111111101100101 3
b100101 4

#440000
0!
0,

#445000
1!
b100110 (
b11111110 )
1,
b100110 0
b111111111111111101100111 3
b100110 4

#450000
0!
0,

#455000
1!
b100111 (
b1100 )
1,
b100111 0
b111111111111111101100101 3
b100111 4

#460000
0!
0,

#465000
1!
b101000 (
b111001 )
1,
b101000 0
b111111111111111101110001 3
b101000 4

#470000
0!
0,

#475000
1!
b101001 (
b10110 )
1,
b101001 0
b111111111111111110101010 3
b101001 4

#480000
0!
0,

#485000
1!
b101010 (
b110010 )
1,
b101010 0
b111111111111111111000000 3
b101010 4

#490000
0!
0,

#495000
1!
b101011 (
b1 )
1,
b101011 0
b111111111111111111110010 3
b101011 4

#500000
0!
0,

#505000
1!
b101100 (
b100001 )
1,
b101100 0
b111111111111111111110011 3
b101100 4

#510000
0!
0,

#515000
1!
b101101 (
b1000110 )
1,
b101101 0
b10100 3
b101101 4

#520000
0!
0,

#525000
1!
b101110 (
b1001101 )
1,
b101110 0
b1011010 3
b101110 4

#530000
0!
0,

#535000
1!
b101111 (
b10111 )
1,
b101111 0
b10100111 3
b101111 4

#540000
0!
0,

#545000
1!
b110000 (
b1001 )
1,
b110000 0
b10111110 3
b110000 4

#550000
0!
0,

#555000
1!
b110001 (
b11011 )
1,
b110001 0
b11000111 3
b110001 4

#560000
0!
0,

#565000
1!
b110010 (
b11 )
1,
b110010 0
b11100010 3
b110010 4

#570000
0!
0,

#575000
1!
b110011 (
b11101011 )
1,
b110011 0
b11100101 3
b110011 4

#580000
0!
0,

#585000
1!
b110100 (
b10001 )
1,
b110100 0
b11010000 3
b110100 4

#590000
0!
0,

#595000
1!
b110101 (
b1100 )
1,
b110101 0
b11100001 3
b110101 4

#600000
0!
0,

#605000
1!
b110110 (
b11011100 )
1,
b110110 0
b11101101 3
b110110 4

#610000
0!
0,

#615000
1!
b110111 (
b11010110 )
1,
b110111 0
b11001001 3
b110111 4

#620000
0!
0,

#625000
1!
b111000 (
b1110 )
1,
b111000 0
b10011111 3
b111000 4

#630000
0!
0,

#635000
1!
b111001 (
b11 )
1,
b111001 0
b10101101 3
b111001 4

#640000
0!
0,

#645000
1!
b111010 (
b11011000 )
1,
b111010 0
b10110000 3
b111010 4

#650000
0!
0,

#655000
1!
b111011 (
b1111 )
1,
b111011 0
b10001000 3
b111011 4

#660000
0!
0,

#665000
1!
b111100 (
b1010 )
1,
b111100 0
b10010111 3
b111100 4

#670000
0!
0,

#675000
1!
b111101 (
b1100 )
1,
b111101 0
b10100001 3
b111101 4

#680000
0!
0,

#685000
1!
b111110 (
b1 )
1,
b111110 0
b10101101 3
b111110 4

#690000
0!
0,

#695000
1!
b111111 (
b1011 )
1,
b111111 0
b10101110 3
b111111 4

#700000
0!
0,

#705000
1!
b1000000 (
b11100001 )
1,
b1000000 0
b10111001 3
b1000000 4

#710000
0!
0,

#715000
1!
b1000001 (
b10100 )
1,
b1000001 0
b10011010 3
b1000001 4

#720000
0!
0,

#725000
1!
b1000010 (
b10001110 )
1,
b1000010 0
b10101110 3
b1000010 4

#730000
0!
0,

#735000
1!
b1000011 (
b11110001 )
1,
b1000011 0
b111100 3
b1000011 4

#740000
0!
0,

#745000
1!
b1000100 (
b11101001 )
1,
b1000100 0
b101101 3
b1000100 4

#750000
0!
0,

#755000
1!
b1000101 (
b11101110 )
1,
b1000101 0
b10110 3
b1000101 4

#760000
0!
0,

#765000
1!
b1000110 (
b11 )
1,
b1000110 0
b100 3
b1000110 4

#770000
0!
0,

#775000
1!
b1000111 (
b11010010 )
1,
b1000111 0
b111 3
b1000111 4

#780000
0!
0,

#785000
1!
b1001000 (
b1011 )
1,
b1001000 0
b111111111111111111011001 3
b1001000 4

#790000
0!
0,

#795000
1!
b1001001 (
b11010000 )
1,
b1001001 0
b111111111111111111100100 3
b1001001 4

#800000
0!
0,

#805000
1!
b1001010 (
b11110011 )
1,
b1001010 0
b111111111111111110110100 3
b1001010 4

#810000
0!
0,

#815000
1!
b1001011 (
b110 )
1,
b1001011 0
b111111111111111110100111 3
b1001011 4

#820000
0!
0,

#825000
1!
b1001100 (
1,
b1001100 0
b111111111111111110101101 3
b1001100 4

#830000
0!
0,

#835000
1!
b1001101 (
1,
b1001101 0
b111111111111111110110011 3
b1001101 4

#840000
0!
0,

#845000
1!
b1001110 (
b1000101 )
1,
b1001110 0
b111111111111111110111001 3
b1001110 4

#850000
0!
0,

#855000
1!
b1001111 (
b11100011 )
1,
b1001111 0
b111111111111111111111110 3
b1001111 4

#860000
0!
0,

#865000
1!
b1010000 (
b11110110 )
1,
b1010000 0
b111111111111111111100001 3
b1010000 4

#870000
0!
0,

#875000
1!
b1010001 (
b110100 )
1,
b1010001 0
b111111111111111111010111 3
b1010001 4

#880000
0!
0,

#885000
1!
b1010010 (
b111010 )
1,
b1010010 0
b1011 3
b1010010 4

#890000
0!
0,

#895000
1!
b1010011 (
b10001 )
1,
b1010011 0
b1000101 3
b1010011 4

#900000
0!
0,

#905000
1!
b1010100 (
b1101 )
1,
b1010100 0
b1010110 3
b1010100 4

#910000
0!
0,

#915000
1!
b1010101 (
b1001001 )
1,
b1010101 0
b1100011 3
b1010101 4

#920000
0!
0,

#925000
1!
b1010110 (
b100100 )
1,
b1010110 0
b10101100 3
b1010110 4

#930000
0!
0,

#935000
1!
b1010111 (
b11111110 )
1,
b1010111 0
b11010000 3
b1010111 4

#940000
0!
0,

#945000
1!
b1011000 (
b10110 )
1,
b1011000 0
b11001110 3
b1011000 4

#950000
0!
0,

#955000
1!
b1011001 (
b11001101 )
1,
b1011001 0
b11100100 3
b1011001 4

#960000
0!
0,

#965000
1!
b1011010 (
b11110010 )
1,
b1011010 0
b10110001 3
b1011010 4

#970000
0!
0,

#975000
1!
b1011011 (
b11010100 )
1,
b1011011 0
b10100011 3
b1011011 4

#980000
0!
0,

#985000
1!
b1011100 (
b101 )
1,
b1011100 0
b1110111 3
b1011100 4

#990000
0!
0,

#995000
1!
b1011101 (
b111001 )
1,
b1011101 0
b1111100 3
b1011101 4

